[
    {
        "model": "Groups.duration_course",
        "pk": 1,
        "fields": {
            "day": 0,
            "time": "08:00:00"
        }
    },
    {
        "model": "Groups.duration_course",
        "pk": 2,
        "fields": {
            "day": 3,
            "time": "12:00:00"
        }
    }
]