[
    {
        "model": "Courses.Courses",
        "pk": 1,
        "fields": {
            "name":"Introducción a la programación",
            "slug":"introduccion_a_la_programacion",
            "description":"Introducción a la programación",
            "seo_title":"Introducción a la programación",
            "seo_meta_description":"Introducción a la programación",
            "amount_usd":"30.00",
            "amount_pen":"115.20",
            "final_project_description":"Introducción a la programación",
            "project_summary":"Introducción a la programación"
        }
    }
]